{
	"name" : "Country",
	"children" : [
		{
			"name" : "tn",
			"description" : {
				"en" : "Tunisia",
				"fr" : "Tunisie"
			}
		},
		{
			"name" : "eg",
			"description" : {
				"en" : "Egypt",
				"fr" : "Egypte"
			}
		},
		{
			"name" : "ly",
			"description" : {
				"en" : "Libya",
				"fr" : "Libye"
			}
		},
		{
			"name" : "dz",
			"description" : {
				"en" : "Algeria",
				"fr" : "Algérie"
			}
		}
	]
}